^C:\USERS\USER\DESKTOP\TEST VERSION\SHAPE_INFERENCE\OPTIMISER\EFS\EFSTANDARD.CPP
/c /IC:\OPENCV\BUILD\INCLUDE /IC:\OPENCV\BUILD\INCLUDE\OPENCV /IC:\OPENCV\BUILD\INCLUDE\OPENCV2 /I"C:\PROGRAM FILES\NVIDIA GPU COMPUTING TOOLKIT\CUDA\V9.2\INCLUDE" /ZI /nologo /W3 /WX- /diagnostics:classic /Od /D WIN32 /D WIN64 /D _DEBUG /D _CONSOLE /D _CRT_SECURE_NO_WARNINGS /D _MBCS /Gm /EHsc /RTC1 /MDd /GS /fp:precise /Zc:wchar_t /Zc:forScope /Zc:inline /Fo"X64\DEBUG\\" /Fd"X64\DEBUG\VC141.PDB" /Gd /TP C:\USERS\USER\DESKTOP\TEST VERSION\SHAPE_INFERENCE\OPTIMISER\EFS\EFSTANDARD.CPP
^C:\USERS\USER\DESKTOP\TEST VERSION\SHAPE_INFERENCE\OPTIMISER\ENGINE\OPTIMISATIONENGINE.CPP
/c /IC:\OPENCV\BUILD\INCLUDE /IC:\OPENCV\BUILD\INCLUDE\OPENCV /IC:\OPENCV\BUILD\INCLUDE\OPENCV2 /I"C:\PROGRAM FILES\NVIDIA GPU COMPUTING TOOLKIT\CUDA\V9.2\INCLUDE" /ZI /nologo /W3 /WX- /diagnostics:classic /Od /D WIN32 /D WIN64 /D _DEBUG /D _CONSOLE /D _CRT_SECURE_NO_WARNINGS /D _MBCS /Gm /EHsc /RTC1 /MDd /GS /fp:precise /Zc:wchar_t /Zc:forScope /Zc:inline /Fo"X64\DEBUG\\" /Fd"X64\DEBUG\VC141.PDB" /Gd /TP C:\USERS\USER\DESKTOP\TEST VERSION\SHAPE_INFERENCE\OPTIMISER\ENGINE\OPTIMISATIONENGINE.CPP
^C:\USERS\USER\DESKTOP\TEST VERSION\SHAPE_INFERENCE\RENDERER\ENGINE\SKETCH.CPP
/c /IC:\OPENCV\BUILD\INCLUDE /IC:\OPENCV\BUILD\INCLUDE\OPENCV /IC:\OPENCV\BUILD\INCLUDE\OPENCV2 /I"C:\PROGRAM FILES\NVIDIA GPU COMPUTING TOOLKIT\CUDA\V9.2\INCLUDE" /ZI /nologo /W3 /WX- /diagnostics:classic /Od /D WIN32 /D WIN64 /D _DEBUG /D _CONSOLE /D _CRT_SECURE_NO_WARNINGS /D _MBCS /Gm /EHsc /RTC1 /MDd /GS /fp:precise /Zc:wchar_t /Zc:forScope /Zc:inline /Fo"X64\DEBUG\\" /Fd"X64\DEBUG\VC141.PDB" /Gd /TP C:\USERS\USER\DESKTOP\TEST VERSION\SHAPE_INFERENCE\RENDERER\ENGINE\SKETCH.CPP
^C:\USERS\USER\DESKTOP\TEST VERSION\SHAPE_INFERENCE\RENDERER\ENGINE\DRAWINGPRIMITIVES.CPP
/c /IC:\OPENCV\BUILD\INCLUDE /IC:\OPENCV\BUILD\INCLUDE\OPENCV /IC:\OPENCV\BUILD\INCLUDE\OPENCV2 /I"C:\PROGRAM FILES\NVIDIA GPU COMPUTING TOOLKIT\CUDA\V9.2\INCLUDE" /ZI /nologo /W3 /WX- /diagnostics:classic /Od /D WIN32 /D WIN64 /D _DEBUG /D _CONSOLE /D _CRT_SECURE_NO_WARNINGS /D _MBCS /Gm /EHsc /RTC1 /MDd /GS /fp:precise /Zc:wchar_t /Zc:forScope /Zc:inline /Fo"X64\DEBUG\\" /Fd"X64\DEBUG\VC141.PDB" /Gd /TP C:\USERS\USER\DESKTOP\TEST VERSION\SHAPE_INFERENCE\RENDERER\ENGINE\DRAWINGPRIMITIVES.CPP
^C:\USERS\USER\DESKTOP\TEST VERSION\SHAPE_INFERENCE\RENDERER\MODEL\MODEL.CPP
/c /IC:\OPENCV\BUILD\INCLUDE /IC:\OPENCV\BUILD\INCLUDE\OPENCV /IC:\OPENCV\BUILD\INCLUDE\OPENCV2 /I"C:\PROGRAM FILES\NVIDIA GPU COMPUTING TOOLKIT\CUDA\V9.2\INCLUDE" /ZI /nologo /W3 /WX- /diagnostics:classic /Od /D WIN32 /D WIN64 /D _DEBUG /D _CONSOLE /D _CRT_SECURE_NO_WARNINGS /D _MBCS /Gm /EHsc /RTC1 /MDd /GS /fp:precise /Zc:wchar_t /Zc:forScope /Zc:inline /Fo"X64\DEBUG\\" /Fd"X64\DEBUG\VC141.PDB" /Gd /TP C:\USERS\USER\DESKTOP\TEST VERSION\SHAPE_INFERENCE\RENDERER\MODEL\MODEL.CPP
^C:\USERS\USER\DESKTOP\TEST VERSION\SHAPE_INFERENCE\RENDERER\MODEL\MODELGROUP.CPP
/c /IC:\OPENCV\BUILD\INCLUDE /IC:\OPENCV\BUILD\INCLUDE\OPENCV /IC:\OPENCV\BUILD\INCLUDE\OPENCV2 /I"C:\PROGRAM FILES\NVIDIA GPU COMPUTING TOOLKIT\CUDA\V9.2\INCLUDE" /ZI /nologo /W3 /WX- /diagnostics:classic /Od /D WIN32 /D WIN64 /D _DEBUG /D _CONSOLE /D _CRT_SECURE_NO_WARNINGS /D _MBCS /Gm /EHsc /RTC1 /MDd /GS /fp:precise /Zc:wchar_t /Zc:forScope /Zc:inline /Fo"X64\DEBUG\\" /Fd"X64\DEBUG\VC141.PDB" /Gd /TP C:\USERS\USER\DESKTOP\TEST VERSION\SHAPE_INFERENCE\RENDERER\MODEL\MODELGROUP.CPP
^C:\USERS\USER\DESKTOP\TEST VERSION\SHAPE_INFERENCE\RENDERER\MODEL\MODELH.CPP
/c /IC:\OPENCV\BUILD\INCLUDE /IC:\OPENCV\BUILD\INCLUDE\OPENCV /IC:\OPENCV\BUILD\INCLUDE\OPENCV2 /I"C:\PROGRAM FILES\NVIDIA GPU COMPUTING TOOLKIT\CUDA\V9.2\INCLUDE" /ZI /nologo /W3 /WX- /diagnostics:classic /Od /D WIN32 /D WIN64 /D _DEBUG /D _CONSOLE /D _CRT_SECURE_NO_WARNINGS /D _MBCS /Gm /EHsc /RTC1 /MDd /GS /fp:precise /Zc:wchar_t /Zc:forScope /Zc:inline /Fo"X64\DEBUG\\" /Fd"X64\DEBUG\VC141.PDB" /Gd /TP C:\USERS\USER\DESKTOP\TEST VERSION\SHAPE_INFERENCE\RENDERER\MODEL\MODELH.CPP
^C:\USERS\USER\DESKTOP\TEST VERSION\SHAPE_INFERENCE\RENDERER\PRIMITIVES\QUATERNION.CPP
/c /IC:\OPENCV\BUILD\INCLUDE /IC:\OPENCV\BUILD\INCLUDE\OPENCV /IC:\OPENCV\BUILD\INCLUDE\OPENCV2 /I"C:\PROGRAM FILES\NVIDIA GPU COMPUTING TOOLKIT\CUDA\V9.2\INCLUDE" /ZI /nologo /W3 /WX- /diagnostics:classic /Od /D WIN32 /D WIN64 /D _DEBUG /D _CONSOLE /D _CRT_SECURE_NO_WARNINGS /D _MBCS /Gm /EHsc /RTC1 /MDd /GS /fp:precise /Zc:wchar_t /Zc:forScope /Zc:inline /Fo"X64\DEBUG\\" /Fd"X64\DEBUG\VC141.PDB" /Gd /TP C:\USERS\USER\DESKTOP\TEST VERSION\SHAPE_INFERENCE\RENDERER\PRIMITIVES\QUATERNION.CPP
^C:\USERS\USER\DESKTOP\TEST VERSION\SHAPE_INFERENCE\RENDERER\TRANSFORMS\CAMERACOORDINATETRANSFORM.CPP
/c /IC:\OPENCV\BUILD\INCLUDE /IC:\OPENCV\BUILD\INCLUDE\OPENCV /IC:\OPENCV\BUILD\INCLUDE\OPENCV2 /I"C:\PROGRAM FILES\NVIDIA GPU COMPUTING TOOLKIT\CUDA\V9.2\INCLUDE" /ZI /nologo /W3 /WX- /diagnostics:classic /Od /D WIN32 /D WIN64 /D _DEBUG /D _CONSOLE /D _CRT_SECURE_NO_WARNINGS /D _MBCS /Gm /EHsc /RTC1 /MDd /GS /fp:precise /Zc:wchar_t /Zc:forScope /Zc:inline /Fo"X64\DEBUG\\" /Fd"X64\DEBUG\VC141.PDB" /Gd /TP C:\USERS\USER\DESKTOP\TEST VERSION\SHAPE_INFERENCE\RENDERER\TRANSFORMS\CAMERACOORDINATETRANSFORM.CPP
^C:\USERS\USER\DESKTOP\TEST VERSION\SHAPE_INFERENCE\RENDERER\TRANSFORMS\COORDINATETRANSFORM.CPP
/c /IC:\OPENCV\BUILD\INCLUDE /IC:\OPENCV\BUILD\INCLUDE\OPENCV /IC:\OPENCV\BUILD\INCLUDE\OPENCV2 /I"C:\PROGRAM FILES\NVIDIA GPU COMPUTING TOOLKIT\CUDA\V9.2\INCLUDE" /ZI /nologo /W3 /WX- /diagnostics:classic /Od /D WIN32 /D WIN64 /D _DEBUG /D _CONSOLE /D _CRT_SECURE_NO_WARNINGS /D _MBCS /Gm /EHsc /RTC1 /MDd /GS /fp:precise /Zc:wchar_t /Zc:forScope /Zc:inline /Fo"X64\DEBUG\\" /Fd"X64\DEBUG\VC141.PDB" /Gd /TP C:\USERS\USER\DESKTOP\TEST VERSION\SHAPE_INFERENCE\RENDERER\TRANSFORMS\COORDINATETRANSFORM.CPP
^C:\USERS\USER\DESKTOP\TEST VERSION\SHAPE_INFERENCE\UTILS\FILEUTILS.CPP
/c /IC:\OPENCV\BUILD\INCLUDE /IC:\OPENCV\BUILD\INCLUDE\OPENCV /IC:\OPENCV\BUILD\INCLUDE\OPENCV2 /I"C:\PROGRAM FILES\NVIDIA GPU COMPUTING TOOLKIT\CUDA\V9.2\INCLUDE" /ZI /nologo /W3 /WX- /diagnostics:classic /Od /D WIN32 /D WIN64 /D _DEBUG /D _CONSOLE /D _CRT_SECURE_NO_WARNINGS /D _MBCS /Gm /EHsc /RTC1 /MDd /GS /fp:precise /Zc:wchar_t /Zc:forScope /Zc:inline /Fo"X64\DEBUG\\" /Fd"X64\DEBUG\VC141.PDB" /Gd /TP C:\USERS\USER\DESKTOP\TEST VERSION\SHAPE_INFERENCE\UTILS\FILEUTILS.CPP
^C:\USERS\USER\DESKTOP\TEST VERSION\SHAPE_INFERENCE\UTILS\HISTOGRAMENGINE.CPP
/c /IC:\OPENCV\BUILD\INCLUDE /IC:\OPENCV\BUILD\INCLUDE\OPENCV /IC:\OPENCV\BUILD\INCLUDE\OPENCV2 /I"C:\PROGRAM FILES\NVIDIA GPU COMPUTING TOOLKIT\CUDA\V9.2\INCLUDE" /ZI /nologo /W3 /WX- /diagnostics:classic /Od /D WIN32 /D WIN64 /D _DEBUG /D _CONSOLE /D _CRT_SECURE_NO_WARNINGS /D _MBCS /Gm /EHsc /RTC1 /MDd /GS /fp:precise /Zc:wchar_t /Zc:forScope /Zc:inline /Fo"X64\DEBUG\\" /Fd"X64\DEBUG\VC141.PDB" /Gd /TP C:\USERS\USER\DESKTOP\TEST VERSION\SHAPE_INFERENCE\UTILS\HISTOGRAMENGINE.CPP
^C:\USERS\USER\DESKTOP\TEST VERSION\SHAPE_INFERENCE\UTILS\IMAGEUTILS.CPP
/c /IC:\OPENCV\BUILD\INCLUDE /IC:\OPENCV\BUILD\INCLUDE\OPENCV /IC:\OPENCV\BUILD\INCLUDE\OPENCV2 /I"C:\PROGRAM FILES\NVIDIA GPU COMPUTING TOOLKIT\CUDA\V9.2\INCLUDE" /ZI /nologo /W3 /WX- /diagnostics:classic /Od /D WIN32 /D WIN64 /D _DEBUG /D _CONSOLE /D _CRT_SECURE_NO_WARNINGS /D _MBCS /Gm /EHsc /RTC1 /MDd /GS /fp:precise /Zc:wchar_t /Zc:forScope /Zc:inline /Fo"X64\DEBUG\\" /Fd"X64\DEBUG\VC141.PDB" /Gd /TP C:\USERS\USER\DESKTOP\TEST VERSION\SHAPE_INFERENCE\UTILS\IMAGEUTILS.CPP
^C:\USERS\USER\DESKTOP\TEST VERSION\SHAPE_INFERENCE\UTILS\MATHUTILS.CPP
/c /IC:\OPENCV\BUILD\INCLUDE /IC:\OPENCV\BUILD\INCLUDE\OPENCV /IC:\OPENCV\BUILD\INCLUDE\OPENCV2 /I"C:\PROGRAM FILES\NVIDIA GPU COMPUTING TOOLKIT\CUDA\V9.2\INCLUDE" /ZI /nologo /W3 /WX- /diagnostics:classic /Od /D WIN32 /D WIN64 /D _DEBUG /D _CONSOLE /D _CRT_SECURE_NO_WARNINGS /D _MBCS /Gm /EHsc /RTC1 /MDd /GS /fp:precise /Zc:wchar_t /Zc:forScope /Zc:inline /Fo"X64\DEBUG\\" /Fd"X64\DEBUG\VC141.PDB" /Gd /TP C:\USERS\USER\DESKTOP\TEST VERSION\SHAPE_INFERENCE\UTILS\MATHUTILS.CPP
^C:\USERS\USER\DESKTOP\TEST VERSION\SHAPE_INFERENCE\UTILS\VISUALISATIONENGINE.CPP
/c /IC:\OPENCV\BUILD\INCLUDE /IC:\OPENCV\BUILD\INCLUDE\OPENCV /IC:\OPENCV\BUILD\INCLUDE\OPENCV2 /I"C:\PROGRAM FILES\NVIDIA GPU COMPUTING TOOLKIT\CUDA\V9.2\INCLUDE" /ZI /nologo /W3 /WX- /diagnostics:classic /Od /D WIN32 /D WIN64 /D _DEBUG /D _CONSOLE /D _CRT_SECURE_NO_WARNINGS /D _MBCS /Gm /EHsc /RTC1 /MDd /GS /fp:precise /Zc:wchar_t /Zc:forScope /Zc:inline /Fo"X64\DEBUG\\" /Fd"X64\DEBUG\VC141.PDB" /Gd /TP C:\USERS\USER\DESKTOP\TEST VERSION\SHAPE_INFERENCE\UTILS\VISUALISATIONENGINE.CPP
^C:\USERS\USER\DESKTOP\TEST VERSION\TENEBRAE\MAIN.CPP
/c /IC:\OPENCV\BUILD\INCLUDE /IC:\OPENCV\BUILD\INCLUDE\OPENCV /IC:\OPENCV\BUILD\INCLUDE\OPENCV2 /I"C:\PROGRAM FILES\NVIDIA GPU COMPUTING TOOLKIT\CUDA\V9.2\INCLUDE" /ZI /nologo /W3 /WX- /diagnostics:classic /Od /D WIN32 /D WIN64 /D _DEBUG /D _CONSOLE /D _CRT_SECURE_NO_WARNINGS /D _MBCS /Gm /EHsc /RTC1 /MDd /GS /fp:precise /Zc:wchar_t /Zc:forScope /Zc:inline /Fo"X64\DEBUG\\" /Fd"X64\DEBUG\VC141.PDB" /Gd /TP C:\USERS\USER\DESKTOP\TEST VERSION\TENEBRAE\MAIN.CPP
